%YAML 1.1
%TAG !u! tag:unity3d.com,2011:
--- !u!1045 &1
EditorBuildSettings:
  m_ObjectHideFlags: 0
  serializedVersion: 2
  m_Scenes:
  - enabled: 0
    path: Assets/Samples/Google Cardboard XR Plugin for Unity/1.7.0/Hello Cardboard/Scenes/HelloCardboard.unity
    guid: 145a2a45d7bc746b19cb68410368bf96
  - enabled: 1
    path: Assets/Scenes/MainScene.unity
    guid: 9fc0d4010bbf28b4594072e72b8655ab
  m_configObjects:
    com.unity.xr.management.loader_settings: {fileID: 11400000, guid: 1279a2efe00b2e94d8bedfb1327967ee, type: 2}
